{"data":[{"id":"cmchmr275008713sxs8v3jgwd","type":"content_block","title":"Утилитные типы.md","description":"Делает все поля объекта необязательными (optional).\n","category":"TS","subCategory":"Утилитные типы","fileId":null,"file":null,"pathTitles":null,"blockLevel":null,"orderInFile":0,"textContent":null,"codeContent":"type Person = {\n  name: string;\n  age: number;\n};\n\ntype PersonPartial = Partial<Person>;\n// Эквивалентно: { name?: string; age?: number; }\n\ntype MyPartial<T> = {\n  [K in keyof T]?: T[K];\n};","codeLanguage":"TYPESCRIPT","isCodeFoldable":null,"codeFoldTitle":null,"extractedUrls":null,"companies":[],"questionBlock":null,"answerBlock":null,"tags":[],"orderIndex":null,"currentUserSolvedCount":0,"createdAt":null,"updatedAt":null},{"id":"cmchmqv6z005613sx0afe3txr","type":"content_block","title":"Zamiki.md","description":"Создайте функцию, которая при вызове возвращает другую функцию. Эта вложенная функция должна принимать любые аргументы, но неизменно возвращать строку \"HelloWorld\".\n","category":"JS","subCategory":"Zamiki","fileId":null,"file":null,"pathTitles":null,"blockLevel":null,"orderInFile":0,"textContent":null,"codeContent":"\nfunction HelloWorld() {\n\treturn function (...args) {\n\treturn 'HelloWorld'\n\t} \n}\n\n\nconst fn = HelloWorld()\nconsole.log(fn())","codeLanguage":"JAVASCRIPT","isCodeFoldable":null,"codeFoldTitle":null,"extractedUrls":null,"companies":[],"questionBlock":null,"answerBlock":null,"tags":[],"orderIndex":null,"currentUserSolvedCount":0,"createdAt":null,"updatedAt":null},{"id":"cmchmr0oi006v13sxew9ydpom","type":"content_block","title":"Задачи.md","description":"Постановка задачи:Необходимо определить обобщенный тип Func<T, K>, описывающий функцию, которая принимает объект T и ключ K, принадлежащий keyof T. Функция должна возвращать значение свойства K объекта T, а его тип должен соответствовать T[K]. Также требуется убедиться, что ReturnType<Func<T, K>> корректно выводит ожидаемый тип.\n","category":"TS","subCategory":"Задачи","fileId":null,"file":null,"pathTitles":null,"blockLevel":null,"orderInFile":0,"textContent":null,"codeContent":"// ReturnType<Func>\ntype Func<T, K extends keyof T> = (a: T, b: K) => T[K];  \ntype T1 = ReturnType<Func<{ a: number; b: string }, 'a'>>;  \n// Возвращаемый тип 'number'\n\nconst getValue: Func<{ a: number; b: string }, 'a'> = (obj, key) => obj[key];  \nconst obj1 = { a: 42, b: \"hello\" };  \nconst value: T1 = getValue(obj1, 'a'); // value = 42 ","codeLanguage":"TYPESCRIPT","isCodeFoldable":null,"codeFoldTitle":null,"extractedUrls":null,"companies":[],"questionBlock":null,"answerBlock":null,"tags":[],"orderIndex":null,"currentUserSolvedCount":0,"createdAt":null,"updatedAt":null},{"id":"cmchmqz4j006a13sxwcftoidl","type":"content_block","title":"Rerender.md","description":"🔗 Sandbox\n","category":"REACT","subCategory":"Rerender","fileId":null,"file":null,"pathTitles":null,"blockLevel":null,"orderInFile":0,"textContent":null,"codeContent":null,"codeLanguage":null,"isCodeFoldable":null,"codeFoldTitle":null,"extractedUrls":null,"companies":[],"questionBlock":null,"answerBlock":null,"tags":[],"orderIndex":null,"currentUserSolvedCount":0,"createdAt":null,"updatedAt":null},{"id":"cmchmqkyq000113sxnxb8cy7h","type":"content_block","title":"Array.md","description":"Постановка задачи:Напишите функцию sum, которая принимает массив чисел, в том числе содержащий вложенные массивы, и возвращает сумму всех чисел в массиве. Для решения задачи используйте рекурсию для обработки вложенных массивов.\n","category":"JS","subCategory":"Array","fileId":null,"file":null,"pathTitles":null,"blockLevel":null,"orderInFile":0,"textContent":null,"codeContent":"function sum(arr) {  \n    return arr.reduce((total, item) => {  \n        if (Array.isArray(item)) {  \n            return total + sum(item); // рекурсивно суммируем вложенные массивы  \n        }  \n        return total + item; // добавляем число к общей сумме  \n    }, 0);  \n}\n  \n// Пример использования  \nconsole.log(sum([1, 1, 1, [2, 1], [1, [1, [1], 3]]])); // Вернет 12","codeLanguage":"JAVASCRIPT","isCodeFoldable":null,"codeFoldTitle":null,"extractedUrls":null,"companies":["Газпромбанк","DatsTeam"],"questionBlock":null,"answerBlock":null,"tags":[],"orderIndex":null,"currentUserSolvedCount":11,"createdAt":null,"updatedAt":null}],"pagination":{"page":1,"limit":5,"total":697,"totalPages":140,"hasNext":true,"hasPrev":false}}